[
  {
    "description": "VM-vänligt operativ system baserat på Debian and Tor och fokuserad på anonymitet, integritet och säkerhet."
  },
  {
    "description": " Android application compatible with ZX2C4's Pass command line application.",
    "slug": "android-password-store",
    "url": "https://github.com/zeapo/Android-Password-Store/blob/master/README.md",
    "wikipedia_url": ""
  },
  {
    "description": "PBX implementation with VoIP/SIP support.",
    "slug": "asterisk",
    "url": "http://www.asterisk.org/",
    "wikipedia_url": "https://en.wikipedia.org/wiki/Asterisk_%28PBX%29"
  },
  {
    "description": "A full range of free, privacy-aware services.",
    "slug": "autistici-inventati",
    "url": "https://www.autistici.org/",
    "wikipedia_url": ""
  },
  {
    "description": "P2P digital valuta utan någon central myndighet.",
    "notes": "Please note that new, digital currencies may be very volatile. Complete loss of your investment is possible for a number of reasons (software errors or attacks, identity theft, etc.). Be prepared!",
    "slug": "bitcoin",
    "url": "http://bitcoin.org",
    "wikipedia_url": "https://en.wikipedia.org/wiki/Bitcoin"
  },
  {
    "description": "Encrypted, decentralized P2P messaging service based on Bitcoin technology.",
    "notes": "Bitmessage is a promising alternative to email, but it has not yet been audited by security professionals. Use at your own risk. If you decide to try out Bitmessage, make sure to generate a completely random ID to greatly reduce the probability of ID collisions.",
    "slug": "bitmessage",
    "url": "https://bitmessage.org/wiki/Main_Page",
    "wikipedia_url": "https://en.wikipedia.org/wiki/Bitmessage"
  },
  {
    "description": "Enterprise class computing platform with 100% binary compatbility with RHEL.",
    "slug": "centos",
    "url": "https://www.centos.org/",
    "wikipedia_url": "https://en.wikipedia.org/wiki/CentOS"
  },
  {
    "description": "OMEMO or OTR encrypted IM for iOS.",
    "slug": "chatsecure",
    "url": "https://chatsecure.org/",
    "wikipedia_url": "https://en.wikipedia.org/wiki/The_Guardian_Project_(software)#ChatSecure"
  },
  {
    "description": "Cjdns is a networking protocol, a system of digital rules for message exchange between computers. “Instead of letting other computers connect to you through a shared IP address which anyone can use, cjdns only lets computers talk to one other after they have verified each other cryptographically. ",
    "slug": "cjdns",
    "url": "https://github.com/cjdelisle/cjdns",
    "wikipedia_url": "https://en.wikipedia.org/wiki/Cjdns"
  },
  {
    "description": "Conversations is an open source XMPP/Jabber client for Android 4.0+ smart phones.",
    "slug": "conversations",
    "url": "https://github.com/siacs/Conversations",
    "wikipedia_url": ""
  },
  {
    "description": "A personal PaaS you can host, hack and delete",
    "slug": "cozy",
    "url": "http://cozy.io/",
    "wikipedia_url": ""
  },
  {
    "description": "Private and encrypted instant messaging within the web browser.",
    "slug": "cryptocat",
    "url": "https://crypto.cat/",
    "wikipedia_url": "https://en.wikipedia.org/wiki/Cryptocat"
  },
  {
    "description": "Self-hosted, zero-knowledge, real-time collaborative documents.",
    "notes": "Encryption carried out in your web browser protects the data from the server, the cloud, and the NSA. The secret encryption key is stored in the URL fragment identifier which is never sent to the server but is available to javascript, so by sharing the URL, you give authorization to others who want to participate. Users must still take care to share links over an end-to-end-encrypted medium for best effect.",
    "slug": "cryptpad",
    "url": "https://cryptpad.fr",
    "wikipedia_url": ""
  },
  {
    "description": "A convenience and ease-of-use layer for use on top of dm-crypt.",
    "notes": "Gentoo maintains [a guide](https://wiki.gentoo.org/wiki/DM-Crypt_LUKS) for dm-crypt with LUKS.\n\nArch Linux also maintains [a guide](https://wiki.archlinux.org/index.php/Dm-crypt_with_LUKS) to dm-crypt with LUKS.\n\nSlackware Linux also maintains [a guide](http://ftp.slackware.com/pub/slackware/slackware-14.1/README_CRYPT.TXT) to dm-crypt with LUKS.\n\ndm-crypt is available for DragonFly BSD.",
    "slug": "cryptsetup",
    "url": "https://gitlab.com/cryptsetup/cryptsetup",
    "wikipedia_url": "https://en.wikipedia.org/wiki/Dm-crypt"
  },
  {
    "description": "Populär etisk GNU/Linux distribution.",
    "slug": "debian",
    "url": "http://debian.org",
    "wikipedia_url": "https://en.wikipedia.org/wiki/Debian"
  },
  {
    "description": "Skyddar dig mot att spåras av “gratis”, centraliserad, innehållsleverans. Det hindrar att förfrågningar görs till nätverk som Google Hosted Libraries och tillhandahåller lokala filer, så att sidor inte går sönder. Kompletterar vanliga blockerare.",
    "notes": "- Skyddar din integritet genom att kringgå stora leveransnätverk som hävdar att erbjuda gratistjänster.\n- Kompletterar allmänna blockerare såsom Ublock Origin, Privacy Badger, m. m.\n- Färdig att använda utan att behöva konfigureras.\n\nDecentraleyes är ingen dunderkur, men det motverkar många sidor från att göra dessa förfrågningar. Skulle en resurs saknas från materialnätverket kan du välja att Decentraleyes helt blockerar förfråganingar för den.",
    "slug": "decentraleyes",
    "url": "https://decentraleyes.org",
    "wikipedia_url": ""
  },
  {
    "description": "Icke kommersiellt socialt nätverk",
    "slug": "diaspora",
    "url": "https://diasporafoundation.org/",
    "wikipedia_url": "https://en.wikipedia.org/wiki/Diaspora_%28software%29"
  },
  {
    "description": "A tool to secure communications between a client and a DNS resolver.",
    "slug": "dnscrypt",
    "url": "https://dnscrypt.info",
    "wikipedia_url": ""
  },
  {
    "description": "Anonyma webbsökningar utan loggfiler.",
    "notes": "DuckDuckGo is a software-as-a-service (SaaS) hosted around the world that provides you with anonymous search results from [these sources](https://dukgo.com/help/en_US/results/sources). DDG open source components are [available here](https://github.com/duckduckgo).\n\nThere is also a DuckDuckGo hidden service at [3g2upl4pq6kufc4m.onion](http://3g2upl4pq6kufc4m.onion) for Tor users.",
    "slug": "duckduckgo",
    "url": "https://duckduckgo.com/",
    "wikipedia_url": "https://en.wikipedia.org/wiki/DuckDuckGo"
  },
  {
    "description": "POSIX-compliant enterprise cryptographic stacked filesystem for GNU/Linux.",
    "slug": "ecryptfs",
    "url": "http://ecryptfs.org/",
    "wikipedia_url": "https://en.wikipedia.org/wiki/ECryptfs"
  },
  {
    "description": "XMPP server written in Erlang/OTP for GNU/Linux and macOS.",
    "slug": "ejabberd",
    "url": "http://www.ejabberd.im/",
    "wikipedia_url": "https://en.wikipedia.org/wiki/Ejabberd"
  },
  {
    "description": "File based encryption tool with support for Linux, Mac OS and Windows.",
    "notes": "EncFS is available for Windows through the “encfs4win” port.",
    "slug": "encfs",
    "url": "https://vgough.github.io/encfs/",
    "wikipedia_url": "https://en.wikipedia.org/wiki/EncFS"
  },
  {
    "description": "Ett OpenPGP tillägg för Thunderbird.",
    "notes": "[Here is a guide](https://securityinabox.org/en/guide/thunderbird/linux/) by Security In A Box to encrypting your email with Mozilla Thunderbird, GNU Privacy Guard (GPG), and Enigmail. Also read the [Email Self-Defense guide](https://emailselfdefense.fsf.org) by the Free Software Foundation to learn how to encrypt your email messages.",
    "slug": "enigmail",
    "url": "https://www.enigmail.net/home/index.php",
    "wikipedia_url": "https://en.wikipedia.org/wiki/Enigmail"
  },
  {
    "description": "Kalkylblads-server för flera användare.",
    "notes": "The EtherCalc online service encrypts your data transmission with HTTPS, but data may be read by anyone who can guess the URL. Download and run your own EtherCalc server if you care about privacy.",
    "slug": "ethercalc",
    "url": "http://ethercalc.net/",
    "wikipedia_url": ""
  },
  {
    "description": "Gratis e-post och kalender klient.",
    "slug": "evolution",
    "url": "https://projects.gnome.org/evolution/",
    "wikipedia_url": "https://en.wikipedia.org/wiki/Evolution_%28software%29"
  },
  {
    "description": "Fri appbutik med öppen källkod för Android.",
    "slug": "f-droid",
    "url": "https://f-droid.org/",
    "wikipedia_url": "https://en.wikipedia.org/wiki/F-Droid"
  },
  {
    "description": "Snabb, stabil, kraftfull GNU/Linux distribution.",
    "slug": "fedora",
    "url": "https://fedoraproject.org/",
    "wikipedia_url": "https://es.wikipedia.org/wiki/Fedora_%28distribuci%C3%B3n_Linux%29"
  },
  {
    "description": "Ett fritt BSD-härlett operativsystem.",
    "slug": "freebsd",
    "url": "https://www.freebsd.org/",
    "wikipedia_url": "https://en.wikipedia.org/wiki/FreeBSD"
  },
  {
    "description": "FreedomBox integrates privacy protection on a cheap plug server so everybody can have privacy.",
    "slug": "freedombox",
    "url": "https://www.freedomboxfoundation.org/",
    "wikipedia_url": "https://en.wikipedia.org/wiki/FreedomBox"
  },
  {
    "description": "Decentraliserat censur-resistent nätverk.",
    "slug": "freenet",
    "url": "https://freenetproject.org/",
    "wikipedia_url": "https://en.wikipedia.org/wiki/Freenet"
  },
  {
    "description": "FreeOTP is a two-factor authentication application for systems utilizing one-time password protocols.",
    "notes": "FreeOTP adds a second layer of security for your online accounts. This works by generating one-time passwords on your mobile devices which can be used in conjunction with your normal password to make your login nearly impossible to hack.",
    "slug": "freeotp",
    "url": "https://freeotp.github.io/",
    "wikipedia_url": "https://en.wikipedia.org/wiki/FreeOTP"
  },
  {
    "description": "Cross-platform soft switch software with VoIP/SIP support.",
    "slug": "freeswitch",
    "url": "https://www.freeswitch.org/",
    "wikipedia_url": "https://en.wikipedia.org/wiki/FreeSWITCH"
  },
  {
    "description": "A non-commercial open grassroots initiative to support free radio networks around the world.",
    "slug": "freifunk",
    "url": "http://wiki.freifunk.net/Kategorie:English",
    "wikipedia_url": "https://en.wikipedia.org/wiki/Freifunk"
  },
  {
    "description": "Gratis webbserver med öppen källkod",
    "slug": "friendica",
    "url": "http://friendica.com/",
    "wikipedia_url": "https://en.wikipedia.org/wiki/Friendica"
  },
  {
    "description": "Light and fast IM client for GNU/Linux and Windows—OTR support via plugin.",
    "slug": "gajim",
    "url": "http://gajim.org/",
    "wikipedia_url": "https://en.wikipedia.org/wiki/Gajim"
  },
  {
    "description": "Disk encryption subsystem included in the FreeBSD operating system.",
    "slug": "geli",
    "url": "http://www.freebsd.org/cgi/man.cgi?query=geli&sektion=8",
    "wikipedia_url": "https://en.wikipedia.org/wiki/Geli_%28software%29"
  },
  {
    "description": "Synkronisera mappar på alla dina datorer och hårddiskar.",
    "slug": "git-annex",
    "url": "https://git-annex.branchable.com/",
    "wikipedia_url": ""
  },
  {
    "description": "Self hosted git server.",
    "slug": "gitlab",
    "url": "https://about.gitlab.com/",
    "wikipedia_url": "https://en.wikipedia.org/wiki/GitLab"
  },
  {
    "description": "Gratis OpenPGP implementering.",
    "slug": "gnu-privacy-guard",
    "url": "http://www.gnupg.org/",
    "wikipedia_url": "https://en.wikipedia.org/wiki/GNU_Privacy_Guard"
  },
  {
    "description": "GNUnet is a fully free P2P network.",
    "slug": "gnunet",
    "url": "https://gnunet.org/",
    "wikipedia_url": "https://en.wikipedia.org/wiki/GNUnet"
  },
  {
    "description": "Painless self hosted git service written in Go.",
    "slug": "gogs",
    "url": "http://gogs.io/",
    "wikipedia_url": ""
  },
  {
    "description": "Gpg4win is an installation package for Windows (XP, Vista, 7 and 8) with software tools and manuals for email and file encryption on behalf of the German Information Security Agency. Gpg4win itself and all tools of Gpg4win are free and open source software. The software mainly uses public-key cryptography for data encryption and digital signatures.",
    "slug": "gpg4win",
    "url": "http://www.gpg4win.org/",
    "wikipedia_url": "https://en.wikipedia.org/wiki/Gpg4win"
  },
  {
    "description": "OpenPGP add-on for Apple macOS Mail.",
    "slug": "gpgtools",
    "url": "https://gpgtools.org/",
    "wikipedia_url": "https://en.wikipedia.org/wiki/GPGTools"
  },
  {
    "description": "Open, free and neutral wireless network for everyone.",
    "slug": "guifinet",
    "url": "https://guifi.net/",
    "wikipedia_url": "https://en.wikipedia.org/wiki/Guifi.net"
  },
  {
    "description": "Cross-platform IRC client.",
    "notes": "HexChat does not offer encrypted IRC by default. You need to enable the FiSHLiM plugin for IRC message encryption.",
    "slug": "hexchat",
    "url": "http://hexchat.github.io/",
    "wikipedia_url": ""
  },
  {
    "description": "Krypterar din trafik till tusentals webbplatser.",
    "slug": "https-everywhere",
    "url": "https://www.eff.org/https-everywhere",
    "wikipedia_url": "https://en.wikipedia.org/wiki/HTTPS_Everywhere"
  },
  {
    "description": "Hubzilla is a powerful platform for creating interconnected websites (hubs) featuring a decentralized identity, communications, and permissions framework built using common webserver technology.",
    "slug": "hubzilla",
    "url": "http://hubzilla.org/",
    "wikipedia_url": ""
  },
  {
    "description": "Det osynliga Internet Projektet.",
    "slug": "i2p",
    "url": "https://geti2p.net/",
    "wikipedia_url": "https://en.wikipedia.org/wiki/I2P"
  },
  {
    "description": "Highly scalable and configurable messaging platform based on the MTA qmail.",
    "slug": "indimail",
    "url": "http://www.indimail.org/",
    "wikipedia_url": "https://en.wikipedia.org/wiki/User:Mbhangui/IndiMail"
  },
  {
    "description": "Install and configure mail server packages automatically in GNU/Linux and BSD.",
    "slug": "iredmail",
    "url": "http://www.iredmail.org/",
    "wikipedia_url": ""
  },
  {
    "description": "Krypterad chatt och video-klient.",
    "slug": "jitsi",
    "url": "https://jitsi.org/",
    "wikipedia_url": "https://en.wikipedia.org/wiki/Jitsi"
  },
  {
    "description": "Open source email app for Android with PGP support.",
    "slug": "k-9-mail",
    "url": "https://github.com/k9mail/k-9",
    "wikipedia_url": "https://en.wikipedia.org/wiki/K-9_Mail"
  },
  {
    "description": "Open source VoIP/SIP server.",
    "slug": "kamailio",
    "url": "http://www.kamailio.org/w/",
    "wikipedia_url": ""
  },
  {
    "description": "Application for people with extremely high demands on secure personal data management. Saves many different types of information such as usernames, passwords, urls, attachments and comments in one single database.",
    "slug": "keepassxc",
    "url": "https://keepassxc.org/",
    "wikipedia_url": "https://en.wikipedia.org/wiki/KeePassXC"
  },
  {
    "description": "Groupware solution for email, files, calendars, address books and mobile sync.",
    "slug": "kolab",
    "url": "https://kolab.org/",
    "wikipedia_url": "https://en.wikipedia.org/wiki/Kolab"
  },
  {
    "description": "Säkra Kolab konton ut ur Schweis för 8.99 CHF per månad eller 4.55 CHF för konton med endast stöd för mejl.",
    "notes": "Kolab Now jobbar ut ur Schweiz och gynnas av dem [starka schweiziska sekretesslagar](https://kolabnow.com/privacy). Det drivs exklusivt med Free Software och att använda tjänsten stödjet utvecklingen av [Kolab](https://kolab.org).\n\nDessutom kan du exportera alla dina data när som helst och har tjänstens villkor fått det bästa betyget från [ToS;DR](http://tosdr.org/#mykolab-com).\n\nTjänsten använder [Perfect Forward Secrecy](https://kolabnow.com/faq?nid=189) och identifierande information [avlägsna](https://kolabnow.com/faq?nid=190) från mejl headers.",
    "slug": "kolabnow",
    "url": "https://kolabnow.com/",
    "wikipedia_url": "https://en.wikipedia.org/wiki/MyKolab"
  },
  {
    "description": "KDE mejl klient med GPG stöd.",
    "slug": "kontact",
    "url": "https://userbase.kde.org/Kontact",
    "wikipedia_url": "https://en.wikipedia.org/wiki/Kontact"
  },
  {
    "description": "A GNU/Linux-libre distribution for embedded devices.",
    "slug": "librecmc",
    "url": "https://librecmc.org/",
    "wikipedia_url": "https://en.wikipedia.org/wiki/LibreCMC"
  },
  {
    "description": "Krypterad röst och video-klient.",
    "notes": "Encryption is only supported for voice and video, but not for instant messaging.",
    "slug": "linphone",
    "url": "https://www.linphone.org/",
    "wikipedia_url": "https://en.wikipedia.org/wiki/Linphone"
  },
  {
    "description": "Litecoin (sign : Ł ; code : LTC) is a peer-to-peer cryptocurrency and open source software project released under the MIT/X11 license. Inspired by and technically nearly identical to Bitcoin (BTC), Litecoin creation and transfer is based on an open source protocol and is not managed by any central authority. Litecoin is intended by its developers to improve upon Bitcoin and offers three key differences.",
    "notes": "Please note that new, digital currencies may be very volatile. Complete loss of your investment is possible for a number of reasons (software errors or attacks, identity theft, etc.). Be prepared!",
    "slug": "litecoin",
    "url": "https://litecoin.org/",
    "wikipedia_url": "https://en.wikipedia.org/wiki/Litecoin"
  },
  {
    "description": "OpenPGP kryptering för webb baserad mejl.",
    "slug": "mailvelope",
    "url": "http://www.mailvelope.com/",
    "wikipedia_url": ""
  },
  {
    "description": "Free virtual globe and world atlas.",
    "slug": "marble",
    "url": "http://marble.kde.org/",
    "wikipedia_url": "https://en.wikipedia.org/wiki/Marble_%28software%29"
  },
  {
    "description": "Lokal webbanalys, öppen källkod.",
    "slug": "matomo",
    "url": "https://matomo.org/",
    "wikipedia_url": "https://en.wikipedia.org/wiki/Matomo_(software)"
  },
  {
    "description": "Publiceringsplattform.",
    "notes": "MediaGoblin does not encrypt any of your data by default.",
    "slug": "mediagoblin",
    "url": "http://mediagoblin.org/",
    "wikipedia_url": "https://en.wikipedia.org/wiki/MediaGoblin"
  },
  {
    "description": "Meta search engine that proxies your queries to multiple search providers.",
    "notes": "No use of Cookies, Session IDs or anything else. Free Proxy, server side anonymisation of IP addresses, Tor branch.",
    "slug": "metager",
    "url": "https://metager.de/en/",
    "wikipedia_url": "https://en.wikipedia.org/wiki/MetaGer"
  },
  {
    "description": "XMPP server based on Prosody, with advanced management/microblogging features.",
    "slug": "metronome",
    "url": "https://metronome.im",
    "wikipedia_url": "https://en.wikipedia.org/wiki/Metronome_IM"
  },
  {
    "description": "Monero is a secure, private, untraceable P2P currency.",
    "notes": "Please note that new, digital currencies may be volatile. Complete loss of your investment is possible for a number of reasons (software errors or attacks, identity theft, etc.). Be prepared!",
    "slug": "monero",
    "url": "https://getmonero.org",
    "wikipedia_url": "https://en.wikipedia.org/wiki/Monero_(cryptocurrency)"
  },
  {
    "description": "Privat socialt nätverk.",
    "slug": "movim",
    "url": "https://movim.eu/",
    "wikipedia_url": "https://en.wikipedia.org/wiki/Movim"
  },
  {
    "description": "Webbläsare med öppen källkod.",
    "slug": "mozilla-firefox"
  },
  {
    "description": "Mejl klient med öppen källkod.",
    "notes": "Thunderbird does not encrypt your email by default. [Here is a guide](https://securityinabox.org/en/guide/thunderbird/linux/) by Security In A Box to encrypting your email with Mozilla Thunderbird, GNU Privacy Guard (GPG), and Enigmail.\n\nThunderbird can optionally connect over Tor with the TorBirdy addon.\n\nWhile Thunderbird can be used as a chat and IRC client, it does not offer encrypted messaging.",
    "slug": "mozilla-thunderbird",
    "url": "https://www.mozilla.org/en-US/thunderbird/",
    "wikipedia_url": "https://en.wikipedia.org/wiki/Mozilla_Thunderbird"
  },
  {
    "description": "Krypterad röstchatt",
    "slug": "mumble",
    "url": "http://www.mumble.info/",
    "wikipedia_url": "https://en.wikipedia.org/wiki/Mumble_%28software%29"
  },
  {
    "description": "Distribuerad DNS, baserad på Bitcoin teknologi.",
    "slug": "namecoin",
    "url": "https://namecoin.org",
    "wikipedia_url": "https://en.wikipedia.org/wiki/Namecoin"
  },
  {
    "description": "Aktivera bara JavaScript, Java, och Flash för sajter du litar på.",
    "slug": "noscript",
    "url": "http://noscript.net/",
    "wikipedia_url": "https://en.wikipedia.org/wiki/NoScript"
  },
  {
    "description": "A free dynamic DNS service. Use it to update an easy DNS name with your changing/hard-to-remember IP address. As we use the standard protocols, we support a lot of routers / update clients and we even actively help you to configure them. We care for your security, privacy and comfort. You can simply use the free service available on our homepage or, if you prefer, you can also run the software on your own server.",
    "slug": "nsupdate-info",
    "url": "https://nsupdate.info/",
    "wikipedia_url": "https://en.wikipedia.org/wiki/Nsupdate"
  },
  {
    "description": "Surf the web through the Tor network with this open source browser for iOS devices.",
    "slug": "onion-browser",
    "url": "https://mike.tig.as/onionbrowser/",
    "wikipedia_url": ""
  },
  {
    "description": "OpenKeychain is an OpenPGP implementation for Android.",
    "slug": "open-keychain",
    "url": "https://www.openkeychain.org/",
    "wikipedia_url": ""
  },
  {
    "description": "The Open Source Routing Machine or OSRM is a C++ implementation of a high-performance routing engine for shortest paths in road networks. Licensed under the permissive 2-clause BSD license, OSRM is a free network service. OSRM supports Linux, FreeBSD, Windows, and Mac platform.",
    "notes": "OSRM should be installed and run locally on your PC to avoid potential data leaks from the unencrypted online service.",
    "slug": "open-source-routing-machine",
    "url": "http://project-osrm.org/",
    "wikipedia_url": "https://en.wikipedia.org/wiki/Open_Source_Routing_Machine"
  },
  {
    "description": "Alternative open source web analytics.",
    "slug": "open-web-analytics",
    "url": "http://www.openwebanalytics.com/",
    "wikipedia_url": "https://en.wikipedia.org/wiki/Open_Web_Analytics"
  },
  {
    "description": "Ett säkert BSD operativsystem.",
    "slug": "openbsd",
    "url": "http://openbsd.org/",
    "wikipedia_url": "https://en.wikipedia.org/wiki/OpenBSD"
  },
  {
    "description": "Cross-platform XMPP server written in Java.",
    "slug": "openfire",
    "url": "http://www.igniterealtime.org/projects/openfire/",
    "wikipedia_url": "https://en.wikipedia.org/wiki/Openfire"
  },
  {
    "description": "Open, democratic, and anti-censorship DNS provider.",
    "notes": "OpenNIC has not adopted an official policy concerning log query privacy/anonymization. More information [here](https://wiki.opennic.org/opennic:tier2).",
    "slug": "opennic",
    "url": "https://www.opennic.org/",
    "wikipedia_url": "https://en.wikipedia.org/wiki/OpenNIC"
  },
  {
    "description": "Fri, kollaborativ världskarta.",
    "slug": "openstreetmap",
    "url": "http://www.openstreetmap.org/",
    "wikipedia_url": "https://en.wikipedia.org/wiki/OpenStreetMap"
  },
  {
    "description": "Free software VPN client.",
    "slug": "openvpn",
    "url": "http://openvpn.net/index.php/open-source.html",
    "wikipedia_url": "https://en.wikipedia.org/wiki/OpenVPN"
  },
  {
    "description": "A GNU/Linux distribution for embedded devices.",
    "slug": "openwrt",
    "url": "https://openwrt.org/",
    "wikipedia_url": "https://en.wikipedia.org/wiki/OpenWrt"
  },
  {
    "description": "Tor proxy för Android.",
    "slug": "orbot",
    "url": "https://guardianproject.info/apps/orbot/",
    "wikipedia_url": "https://en.wikipedia.org/wiki/Orbot"
  },
  {
    "description": "OsmAnd (OSM Automated Navigation Directions) is a map and navigation app that uses OpenStreetMap data.",
    "slug": "osmand",
    "url": "http://osmand.net/",
    "wikipedia_url": "https://en.wikipedia.org/wiki/OsmAnd"
  },
  {
    "description": "Password Safe (Android Port). Stores passwords, site URLs, email addresses, notes and much more into encrypted container file, so you only need to remember one master password. Can generate random passwords (with optional site-specific policies).",
    "slug": "passwdsafe",
    "url": "http://passwdsafe.sourceforge.net/",
    "wikipedia_url": ""
  },
  {
    "description": "Simple password manager using gpg and ordinary unix directories.",
    "slug": "password-store",
    "url": "https://www.passwordstore.org/",
    "wikipedia_url": ""
  },
  {
    "description": "Password Safe (Windows/Linux), designed by Bruce Schneier. Stores passwords, site URLs, email addresses, notes and much more into encrypted container file, so you only need to remember one master password. Can generate random passwords (with optional site-specific policies).",
    "slug": "passwordsafe",
    "url": "http://pwsafe.org/",
    "wikipedia_url": "https://en.wikipedia.org/wiki/Password_Safe"
  },
  {
    "description": "Gratis fotogalleri.",
    "notes": "Piwigo does not encrypt any of your data by default.",
    "slug": "piwigo",
    "url": "http://piwigo.org/",
    "wikipedia_url": "https://en.wikipedia.org/wiki/Piwigo"
  },
  {
    "description": "Tracking blocker that tries to learn who is spying on you and then blocks these ads and invisible trackers.",
    "notes": "Privacy Badger may be less effective than a classic blacklist based solution such as uBlock or Disconnect. Advertisers can automatically unblock themselves by claiming not to track you.",
    "slug": "privacy-badger",
    "url": "https://www.eff.org/privacybadger",
    "wikipedia_url": "https://en.wikipedia.org/wiki/Privacy_Badger"
  },
  {
    "description": "Flexible lightweight XMPP server written in Lua.",
    "slug": "prosody",
    "url": "https://prosody.im/",
    "wikipedia_url": "https://en.wikipedia.org/wiki/Prosody_%28software%29"
  },
  {
    "description": "Multi-platform IM client for power users with built-in OTR support.",
    "slug": "psi",
    "url": "http://psi-plus.com/",
    "wikipedia_url": "https://en.wikipedia.org/wiki/Psi_%28instant_messaging_client%29"
  },
  {
    "description": "Lokal social streaming server.",
    "slug": "pumpio",
    "url": "http://pump.io/",
    "wikipedia_url": "https://en.wikipedia.org/wiki/Pump.io"
  },
  {
    "description": "Instantly turn any server into a file sharing platform.",
    "slug": "pydio",
    "url": "http://pyd.io/",
    "wikipedia_url": ""
  },
  {
    "description": "Fedora/Xen-baserat OS byggt för att tillgodose säkerhet genom isolering.",
    "slug": "qubes",
    "url": "https://www.qubes-os.org/",
    "wikipedia_url": "https://en.wikipedia.org/wiki/Qubes_OS"
  },
  {
    "description": "Helt gratis Android distribution.",
    "slug": "replicant",
    "url": "http://replicant.us/",
    "wikipedia_url": "https://en.wikipedia.org/wiki/Replicant_%28operating_system%29"
  },
  {
    "description": "Gratis och säker P2P kommunikations plattform.",
    "notes": "Note that RetroShare has not been thoroughly audited by security professionals for possible security issues.\n\nFor those of you without a server, RetroShare is probably the easiest way to start your own encrypted social network.",
    "slug": "retroshare",
    "url": "http://retroshare.net",
    "wikipedia_url": "https://en.wikipedia.org/wiki/RetroShare"
  },
  {
    "description": "Ring is a secure and distributed voice, video and chat communication platform that requires no centralized server and leaves the power of privacy in the hands of the user.",
    "slug": "ring",
    "url": "https://ring.cx/",
    "wikipedia_url": "https://en.wikipedia.org/wiki/Ring_(software)"
  },
  {
    "description": "Riot is a secure collaboration app for group chat, file transfer and voice/video conferencing built on the decentralized Matrix ecosystem, providing bridges and integrations to centralized services such as IRC, Slack, Gitter, etc",
    "notes": "End-to-end encryption is in beta on Web as of Nov 5th 2016, with other platforms following week of Nov 14th",
    "slug": "riot",
    "url": "https://riot.im/",
    "wikipedia_url": "https://en.wikipedia.org/wiki/Matrix_(communication_protocol)"
  },
  {
    "description": "Säkert och privat mejl konto.",
    "notes": "Riseup's services may also be accessed via their Tor Hidden Service addresses. A list is [available here](https://www.riseup.net/en/tor#riseups-tor-hidden-services).",
    "slug": "riseup",
    "url": "https://riseup.net/en",
    "wikipedia_url": ""
  },
  {
    "description": "Mångsidigt kommunikationsverktyg.",
    "slug": "salut-a-toi",
    "url": "http://sat.goffi.org/",
    "wikipedia_url": ""
  },
  {
    "description": "The personal, minimalist, super-fast, no-database delicious clone.",
    "slug": "shaarli",
    "url": "https://github.com/shaarli/Shaarli/",
    "wikipedia_url": ""
  },
  {
    "description": "A fork of TextSecure with SMS encryption.",
    "slug": "silence",
    "url": "https://silence.im/",
    "wikipedia_url": ""
  },
  {
    "description": "Lokal versions kontroll och filsynkronisering",
    "slug": "sparkleshare",
    "url": "http://sparkleshare.org/",
    "wikipedia_url": "https://en.wikipedia.org/wiki/SparkleShare"
  },
  {
    "description": "Privata webbsökningar utan loggfiler.",
    "notes": "Startpage is a SaaS hosted in the USA and the Netherlands that provides you with anonymous Google search and image results through a free proxy. Its sibling project ixquick.eu, however, offer results from other search engine.\n\n Ixquick also provides the stand-alone Ixquick Proxy service that allows users to open search results via proxy.\n\n As of February 19, 2015, Startpage.com is the default search engine in the Tor Browser.",
    "slug": "startpage",
    "url": "https://startpage.com/",
    "wikipedia_url": "https://en.wikipedia.org/wiki/Ixquick#Startpage.com"
  },
  {
    "description": "Continuous decentralized file synchronization.",
    "notes": "Syncthing is a self-hosted file sharing platform, so none of your data is ever stored anywhere other than on your computers. There is no central server that might be compromised, legally or illegally. All communication is secured using TLS. The encryption used includes perfect forward secrecy to prevent any eavesdropper from gaining access to your data. Every node is identified by a strong cryptographic certificate. Only nodes you have explicitly allowed can connect to your cluster.",
    "slug": "syncthing",
    "url": "https://syncthing.net/",
    "wikipedia_url": "https://en.wikipedia.org/wiki/Syncthing"
  },
  {
    "description": "Fritt och öppet molnlagringssystem.",
    "slug": "tahoe-lafs",
    "url": "https://tahoe-lafs.org/trac/tahoe-lafs",
    "wikipedia_url": "https://en.wikipedia.org/wiki/Tahoe-LAFS"
  },
  {
    "description": "Live CD/USB avsedd för sekretess.",
    "slug": "tails",
    "url": "https://tails.boum.org/",
    "wikipedia_url": "https://en.wikipedia.org/wiki/The_Amnesic_Incognito_Live_System"
  },
  {
    "description": "Cross-platform XMPP server written in Java.",
    "slug": "tigase",
    "url": "http://www.tigase.org/",
    "wikipedia_url": "https://en.wikipedia.org/wiki/Tigase"
  },
  {
    "description": "Free software daemon that uses tunnelling and encryption to create a secure private network",
    "slug": "tinc",
    "url": "http://tinc-vpn.org/",
    "wikipedia_url": "https://en.wikipedia.org/wiki/Tinc_%28protocol%29"
  },
  {
    "description": "Tor (previously TOR, an acronym for The Onion Router)[not in citation given] is free software for enabling online anonymity. Tor directs Internet traffic through a free, worldwide, volunteer network consisting of more than four thousand relays to conceal a user's location or usage from anyone conducting network surveillance or traffic analysis. Using Tor makes it more difficult to trace Internet activity, including “visits to Web sites, online posts, instant messages, and other communication forms”, back to the user and is intended to protect the personal privacy of users, as well as their freedom and ability to conduct confidential business by keeping their internet activities from being monitored.",
    "slug": "tor",
    "url": "https://www.torproject.org/",
    "wikipedia_url": "https://en.wikipedia.org/wiki/Tor_%28anonymity_network%29"
  },
  {
    "description": "Krypterad, anonym surfning.",
    "slug": "tor-browser",
    "url": "https://www.torproject.org/projects/torbrowser.html.en",
    "wikipedia_url": "https://en.wikipedia.org/wiki/Tor_Browser"
  },
  {
    "description": "Add-on that makes Thunderbird/Icedove connect through Tor.",
    "notes": " TorBirdy is in beta and should be considered experimental. Please make sure that before using it, you are aware of the known issues and leaks by reading the “Before using TorBirdy” and “Known TorBirdy” Issues sections on the project website.",
    "slug": "torbirdy",
    "url": "https://trac.torproject.org/projects/tor/wiki/torbirdy",
    "wikipedia_url": ""
  },
  {
    "description": "Free and open-source, peer-to-peer, encrypted instant messaging and video calling software. The stated goal of the project is to provide secure yet easily accessible communication for everyone.",
    "notes": "Tox is a new encrypted communications system in the making. It is built upon a well known encryption library and has great potential, but it has not yet been audited by security professionals. Use at your own risk. If you decide to try out Tox, be sure to leave them feedback.\n\nTox does not yet have an official GUI but [several are recommended by the development team](https://wiki.tox.chat/Binaries).",
    "slug": "tox",
    "url": "https://tox.chat",
    "wikipedia_url": "https://en.wikipedia.org/wiki/Tox_(software)"
  },
  {
    "description": "Tunnelblick is a free, open source graphic user interface for OpenVPN on macOS. It provides easy control of OpenVPN client and/or server connections.",
    "slug": "tunnelblick",
    "url": "https://tunnelblick.net/",
    "wikipedia_url": ""
  },
  {
    "description": "An efficient blocker for Firefox and Chromium. Fast and lean.",
    "slug": "ublock-origin",
    "url": "https://github.com/gorhill/uBlock",
    "wikipedia_url": "https://en.wikipedia.org/wiki/UBlock#uBlock_Origin"
  },
  {
    "description": "Meta search engine that protects privacy and intends to return neutral search results.",
    "notes": "Unbubble is a web search engine from Germany providing results in eight languages. Its primary goal is to create neutral search results. It takes strong measures to protect privacy.",
    "slug": "unbubble",
    "url": "https://unbubble.eu",
    "wikipedia_url": ""
  },
  {
    "description": "Client-side encrypted image host web server.",
    "notes": "Up1 is a simple host that client-side encrypts images, text, and other data, and stores them, with the server knowing nothing about the contents. It has the ability to view images, text with syntax highlighting, short videos, and arbitrary binaries as downloadables.",
    "slug": "up1",
    "url": "https://github.com/Upload/Up1/blob/master/README.md",
    "wikipedia_url": ""
  },
  {
    "description": "wallabag is a self hostable application for saving web pages. Unlike other services, wallabag is free (as in freedom) and open source.",
    "slug": "wallabag",
    "url": "https://www.wallabag.org/",
    "wikipedia_url": ""
  },
  {
    "description": "Extensible and customisable chat client for IRC and XMPP/Jabber.",
    "slug": "weechat",
    "url": "http://www.weechat.org/",
    "wikipedia_url": "https://en.wikipedia.org/wiki/WeeChat"
  },
  {
    "description": "The most comprehensive and integrated Free / Libre / Open Source software suite ever developed.",
    "slug": "wikisuite",
    "url": "http://wikisuite.org/",
    "wikipedia_url": ""
  },
  {
    "description": "Gratis hemsida/blogg CMS.",
    "notes": "WordPress does not encrypt any of your data by default.\n\nUsing avatars in WordPress will activate Gravatar, which which will send your email address to gravatar.com. Avatars are activated by default and can be turned off under “Settings > Discussion > Avatars”.\n\nThe default WordPress themes force your visitors to download Google Fonts. Consider switching to a completely self-hosted theme. You can also install the plugin <a href='http://wordpress.org/plugins/disable-google-fonts/'>“Disable Google Fonts”</a> to remove this vulnerability.",
    "slug": "wordpress",
    "url": "https://wordpress.org/",
    "wikipedia_url": "https://en.wikipedia.org/wiki/WordPress"
  },
  {
    "description": "Gratis hemsida CMS.",
    "notes": "Zenphoto does not encrypt any of your data by default.",
    "slug": "zenphoto",
    "url": "http://www.zenphoto.org/",
    "wikipedia_url": ""
  }
]
